Beta Regression in Stan
…
data(FoodExpenditure, package = "betareg")
FoodExpenditure <-
    FoodExpenditure %>%
    as_tibble() %>%
    mutate(p_food = food / income)
FoodExpenditure

## # A tibble: 38 x 4
##     food income persons p_food
##    <dbl>  <dbl>   <int>  <dbl>
##  1 16.0    62.5       1  0.256
##  2 16.7    82.3       5  0.202
##  3 21.7    74.7       3  0.291
##  4  7.43   39.2       3  0.190
##  5 10.5    64.7       5  0.162
##  6 13.5    36.8       3  0.368
##  7 23.3    83.1       4  0.280
##  8 18.0    86.9       1  0.207
##  9 14.2    88.2       2  0.160
## 10  8.82   38.7       2  0.228
## # ... with 28 more rows
…
