Dirichlet Process Prior
…
## Make sure G0_vector has integer names
draw_dirichlet <- function(n_draws, M, G0_vector) {
    MCMCpack::rdirichlet(n_draws, alpha = M * G0_vector) %>%
    t %>%
    as_data_frame %>%
    mutate(y = names(G0_vector)) %>%
    gather(key = .iter, value = p, -y) %>%
    mutate(.iter = as.integer(gsub("V", "", .iter)),
           M = M)
}

draw_dirichlet(n = 10, M = 1, G0_vector = G0_vector(lambda = 2, min = 1, max = 8))

## # A tibble: 80 x 4
##    y     .iter        p     M
##    <chr> <int>    <dbl> <dbl>
##  1 1         1 2.82e- 1     1
##  2 2         1 4.26e- 1     1
##  3 3         1 2.03e- 1     1
##  4 4         1 8.96e- 2     1
##  5 5         1 5.77e-20     1
##  6 6         1 9.89e-44     1
##  7 7         1 9.17e-25     1
##  8 8         1 2.20e-82     1
##  9 1         2 8.04e- 1     1
## 10 2         2 5.90e- 4     1
## # ... with 70 more rows
…
