rstanarm feature/survival branch
…
data(leukemia, package = "survival")
leukemia <- as_data_frame(leukemia) %>%
    mutate(id = seq_len(n())) %>%
    select(id, everything())

## Warning: `as_data_frame()` is deprecated as of tibble 2.0.0.
## Please use `as_tibble()` instead.
## The signature and semantics have changed, see `?as_tibble`.
## This warning is displayed once every 8 hours.
## Call `lifecycle::last_warnings()` to see where this warning was generated.

leukemia

## # A tibble: 23 x 4
##       id  time status x         
##    <int> <dbl>  <dbl> <fct>     
##  1     1     9      1 Maintained
##  2     2    13      1 Maintained
##  3     3    13      0 Maintained
##  4     4    18      1 Maintained
##  5     5    23      1 Maintained
##  6     6    28      0 Maintained
##  7     7    31      1 Maintained
##  8     8    34      1 Maintained
##  9     9    45      0 Maintained
## 10    10    48      1 Maintained
## #  with 13 more rows
…
This seems to be an increasing hazard setting with the Weibull fit.

tidybayes::tidy_draws(stan_surv_weibull)

## # A tibble: 4,000 x 12
##    .chain .iteration .draw `(Intercept)` xNonmaintained `weibull-shape` accept_stat__ stepsize__ treedepth__
##     <int>      <int> <int>         <dbl>          <dbl>           <dbl>         <dbl>      <dbl>       <dbl>
##  1      1          1     1         -4.83          0.942            1.15         0.989      0.144           2
##  2      1          2     2         -4.89          0.592            1.31         0.997      0.144           4
##  3      1          3     3         -6.61          2.19             1.42         0.999      0.144           4
##  4      1          4     4         -7.01          2.16             1.53         0.998      0.144           4
##  5      1          5     5         -6.71          1.98             1.53         0.995      0.144           3
##  6      1          6     6         -4.95          0.934            1.26         0.954      0.144           4
##  7      1          7     7         -5.57          1.75             1.30         0.985      0.144           5
##  8      1          8     8         -5.04          0.548            1.34         0.933      0.144           4
##  9      1          9     9         -5.12          0.896            1.22         0.969      0.144           3
## 10      1         10    10         -6.47          1.63             1.43         0.985      0.144           4
## #  with 3,990 more rows, and 3 more variables: n_leapfrog__ <dbl>, divergent__ <dbl>, energy__ <dbl>
…
