Estimating Joint Models for Longitudinal and Time-to-Event Data with rstanarm
…
library(tidyverse)
library(rstanarm)

Load datasets

## multiple-row per patient longitudinal biomarker information
data(pbcLong, package = "survival")

## Warning in data(pbcLong, package = "survival"): data set 'pbcLong' not found

pbcLong <- as_data_frame(pbcLong)
pbcLong

## # A tibble: 304 x 8
##       id   age sex     trt  year logBili albumin platelet
##  * <int> <dbl> <fct> <int> <dbl>   <dbl>   <dbl>    <int>
##  1     1  58.8 f         1 0      2.67      2.6       190
##  2     1  58.8 f         1 0.526  3.06      2.94      183
##  3     2  56.4 f         1 0      0.0953    4.14      221
##  4     2  56.4 f         1 0.498 -0.223     3.6       188
##  5     2  56.4 f         1 0.999  0         3.55      161
##  6     2  56.4 f         1 2.10   0.642     3.92      122
##  7     2  56.4 f         1 4.90   0.956     3.32      135
##  8     2  56.4 f         1 5.89   1.28      2.92      100
##  9     2  56.4 f         1 6.89   1.44      2.73      103
## 10     2  56.4 f         1 7.89   1.28      2.8       113
## # ... with 294 more rows

## single-row per patient survival information
data(pbcSurv, package = "survival")

## Warning in data(pbcSurv, package = "survival"): data set 'pbcSurv' not found

pbcSurv <- as_data_frame(pbcSurv)
pbcSurv

## # A tibble: 40 x 7
##       id   age sex     trt futimeYears status death
##  * <int> <dbl> <fct> <int>       <dbl>  <int> <dbl>
##  1     1  58.8 f         1       1.10       2     1
##  2     2  56.4 f         1      14.2        0     0
##  3     3  70.1 m         1       2.77       2     1
##  4     4  54.7 f         1       5.27       2     1
##  5     5  38.1 f         0       4.12       1     0
##  6     6  66.3 f         0       6.85       2     1
##  7     7  55.5 f         0       6.85       0     0
##  8     8  53.1 f         0       6.75       2     1
##  9     9  42.5 f         1       6.57       2     1
## 10    10  70.6 f         0       0.140      2     1
## # ... with 30 more rows
…
